…
#### Task 1.3: Generate frequency plots on variables with many categories

.pull-left[
.tiny-font[`order_country` -- staged data for charting:]
.xtiny-font[
```{r order-country, eval=FALSE, echo=TRUE, out.width="100%"}
# Generate tibble of countries ordered by frequency (for ordered factors).
order_country <- simulated_oac_age_sex %>%
  group_by(dest_airport_country) %>%
  summarise(count=n()) %>%
  arrange(-count)

> order_country
# A tibble: 25 x 2
   dest_airport_country  count
   <chr>                 <int>
 1 Spain                112128
 2 Greece                43543
 3 Turkey                29149
 4 Egypt                 28220
 5 Tunisia               17672
 6 Mexico                13438
 7 Cyprus                12488
 8 Cuba                   7394
 9 Cape Verde             7040
10 Italy                  6880
# … with 15 more rows
```
…
.pull-right[
.tiny-font[Use function in a [functional programming](https://purrr.tidyverse.org/) way:]
.xtiny-font[
```{r generate-plot-proportions-3, eval=FALSE, echo=TRUE}
purrr::map_df(
  groups,
  ~calculate_props(temp_simulated_data, rlang::sym(.x))
  )

# A tibble: 36 x 5
   focus_prop control_prop diff_prop variable_type   variable_name
        <dbl>        <dbl>     <dbl> <chr>           <chr>
 1     0.115        0.105   0.00930  supergroup_name Constrained City Dwellers
 2     0.0138       0.0729 -0.0590   supergroup_name Cosmopolitans
 3     0.0369       0.0350  0.00195  supergroup_name Ethnicity Central
 4     0.166        0.165   0.00118  supergroup_name Hard-Pressed Living
 5     0.164        0.163   0.000466 supergroup_name Multicultural Metropolitans
 6     0.0124       0.0144 -0.00201  supergroup_name Rural Residents
 7     0.279        0.216   0.0632   supergroup_name Suburbanites
 8     0.213        0.228  -0.0151   supergroup_name Urbanites
 9     0.0356       0.0598 -0.0242   age_band        a24under
10     0.141        0.176  -0.0343   age_band        a25to34
# … with 26 more rows
```
…
