…
# Merge and gather for charting.
oa_level_summary <- temp_weights_summary %>%
  inner_join(...) %>%
  gather(...)
```
]
]

 .pull-right[
 .xtiny-font[
```{r oa-stats-example, eval=FALSE, cache=TRUE}
> oa_level_summary
# A tibble: 10,172 x 3
   oa_code   statistic_type statistic_value
   <chr>     <chr>                    <dbl>
 1 E00056750 weight_mean             0.0528
 2 E00056751 weight_mean             0.0257
 3 E00056752 weight_mean             0.0492
 4 E00056753 weight_mean             0.124
 5 E00056754 weight_mean             0.0322
 6 E00056755 weight_mean             0.0369
 7 E00056756 weight_mean             0.0472
 8 E00056757 weight_mean             0.0254
 9 E00056758 weight_mean             0.0306
10 E00056759 weight_mean             0.0220
# … with 10,162 more rows
```
…
